…
We can then check if the qgisprocess package was installed by calling some functions.

```r
library(qgisprocess)
qgis_path()
[1] "qgis_process"

# check QGIS version
qgis_version()
[1] "3.14.16-Pi"

# check available QGIS algorithms
qgis_algorithms()
# A tibble: 984 x 5
   provider provider_title algorithm                  algorithm_id          algorithm_title          
   <chr>    <chr>          <chr>                      <chr>                 <chr>                    
 1 3d       QGIS (3D)      3d:tessellate              tessellate            Tessellate               
 2 gdal     GDAL           gdal:aspect                aspect                Aspect                   
 3 gdal     GDAL           gdal:assignprojection      assignprojection      Assign projection        
 4 gdal     GDAL           gdal:buffervectors         buffervectors         Buffer vectors           
 5 gdal     GDAL           gdal:buildvirtualraster    buildvirtualraster    Build virtual raster     
 6 gdal     GDAL           gdal:buildvirtualvector    buildvirtualvector    Build virtual vector     
 7 gdal     GDAL           gdal:cliprasterbyextent    cliprasterbyextent    Clip raster by extent    
 8 gdal     GDAL           gdal:cliprasterbymasklayer cliprasterbymasklayer Clip raster by mask layer
 9 gdal     GDAL           gdal:clipvectorbyextent    clipvectorbyextent    Clip vector by extent    
10 gdal     GDAL           gdal:clipvectorbypolygon   clipvectorbypolygon   Clip vector by mask layer
# … with 974 more rows
…
